<?xml version="1.0" encoding="UTF-8" ?>
<pmd version="@project.version@" timestamp="2017-06-23T15:42:16+02:00">
  <file name="D:\htdocs\noticias\src\AppBundle\Controller\DefaultController.php">
    <violation beginline="14" endline="14" rule="UnusedFormalParameter" ruleset="Unused Code Rules" externalInfoUrl="http://phpmd.org/rules/unusedcode.html#unusedformalparameter" priority="3">
      Avoid unused parameters such as '$request'.
    </violation>
  </file>
  <file name="D:\htdocs\noticias\src\IncidenciaBundle\Entity\Coit_servicios.php">
    <violation beginline="22" endline="22" rule="UnusedPrivateField" ruleset="Unused Code Rules" externalInfoUrl="http://phpmd.org/rules/unusedcode.html#unusedprivatefield" priority="3">
      Avoid unused private fields such as '$id_servicio'.
    </violation>
    <violation beginline="29" endline="29" rule="UnusedPrivateField" ruleset="Unused Code Rules" externalInfoUrl="http://phpmd.org/rules/unusedcode.html#unusedprivatefield" priority="3">
      Avoid unused private fields such as '$ds_servicio'.
    </violation>
    <violation beginline="36" endline="36" rule="UnusedPrivateField" ruleset="Unused Code Rules" externalInfoUrl="http://phpmd.org/rules/unusedcode.html#unusedprivatefield" priority="3">
      Avoid unused private fields such as '$ds_definicion_serv'.
    </violation>
  </file>
  <file name="D:\htdocs\noticias\src\IncidenciaBundle\Entity\Meta.php">
    <violation beginline="36" endline="36" rule="UnusedPrivateField" ruleset="Unused Code Rules" externalInfoUrl="http://phpmd.org/rules/unusedcode.html#unusedprivatefield" priority="3">
      Avoid unused private fields such as '$descripcion'.
    </violation>
  </file>
</pmd>
